# 自動登録で使用される名前のリストです。
# このファイルには男女共につけられる名前を列挙してください。
#
# このリストには、次のスキンタイプで使用される名前が列挙されています。
#  * Modern(現代バリアント)
#  * School(学園バリアント)
#
# このリストはCC0(https://creativecommons.org/publicdomain/zero/1.0/deed.ja)で
# 提供されており、あらゆる自由な利用が許可されていますが、無保証であり、
# それによって何らかの損害を負ったとしても提供者は一切責任を負いません。
#
# 提供者: Ganma Shadow

相田
青木
蒼月
赤井
紅井
明石
赤塚
秋田
秋月
明智
浅葱
飛鳥
東
安仁屋
阿部
有川
有明
碇
生島
石垣
石塚
伊集院
石動
一条
一文字
五木
犬飼
犬神
井上
今泉
上杉
上田
鵜飼
宇崎
宇藤
有働
浦川
江藤
江戸川
衛宮
江本
遠藤
大石
大江
大岡
大川
扇
大迫
大下
大島
大空
大宇宙
太田
大塚
岡崎
岡村
岡本
沖田
織田
小津
大鳳
恩田
櫂
甲斐
神楽
笠原
風間
霞
桂
桂木
葛木
葛城
加藤
金澤
金田
加納
兜
鏑木
上条
亀山
神戸
菊池
如月
北沢
北島
清松
吉良
霧島
桐島
桐生
金田一
空条
工藤
九桐
国立
久能
久保
久保田
九門
倉澤
倉久
黒川
黒木
黒崎
玄田
源田
上月
剛堂
小島
古代
九角
言峰
小西
小林
小日向
小山
権田原
近藤
西園寺
才賀
雑賀
西郷
西城
斎藤
佐伯
早乙女
堺
坂上
榊
坂口
坂下
坂本
桜井
桜木
佐々木
笹本
佐藤
里見
真田
沢木
沢崎
沢村
椎名
紫暮
東雲
篠原
東海林
白瀬
白鳥
神宮寺
杉下
杉本
鈴木
鈴吹
鈴宮
涼宮
関
関口
瀬良
千堂
相馬
宗谷
園崎
園村
醍醐
平
高橋
高村
高山
鷹山
竹田
武田
武見
武村
竹下
立原
伊達
田中
谷口
谷村
田沼
玉城
田原
千葉
司
月城
堤
円谷
剣
手柴
天河
天堂
堂島
堂上
東条
藤堂
当摩
冬馬
東谷
遠野
十鬼島
朱鷺田
徳川
友野
豊臣
鳥居
内藤
長嶋
仲町
中村
流
鳴神
鳴海
南条
新山
西
西崎
西村
西澤
沼田
根津
野上
野崎
野沢
野寺
野村
長谷川
支倉
服部
花園
花村
羽坂
林
林原
羽山
原
原島
原田
東方
久川
土方
比勇
緋勇
日向
平島
平田
藤田
不動
北条
蓬莱寺
星川
星野
細江
本郷
舞園
前田
前原
牧島
巻島
牧野
柾木
松方
松平
松村
松本
三浦
御門
三河
美川
御子柴
岬
美里
水野
美空
三谷
三田村
御剣
源
三船
宮本
三和
三輪
村雨
目黒
毛利
物部
桃井
百瀬
百地
森
森里
森村
森本
森山
諸星
柳生
安田
八頭
八環
梁田
矢野
矢部
山岸
山北
山田
山寺
大和
山本
闇野
結城
夕薙
弓
弓田
弓手
吉井
吉澤
吉田
六道
竜宮
瑠璃高
鷲山
和田
渡辺
和同
